%YAML 1.1
%TAG !u! tag:unity3d.com,2011:
--- !u!1 &9078467562871316788
GameObject:
  m_ObjectHideFlags: 0
  m_CorrespondingSourceObject: {fileID: 0}
  m_PrefabInstance: {fileID: 0}
  m_PrefabAsset: {fileID: 0}
  serializedVersion: 6
  m_Component:
  - component: {fileID: 6390160636646022493}
  - component: {fileID: 54865020760211}
  - component: {fileID: 7592724232968764597}
  - component: {fileID: 4509499200518839496}
  - component: {fileID: -6302726800169224700}
  - component: {fileID: 8406047398077677370}
  - component: {fileID: 7241289077568555940}
  m_Layer: 0
  m_Name: fireBall
  m_TagString: Projectile
  m_Icon: {fileID: 0}
  m_NavMeshLayer: 0
  m_StaticEditorFlags: 0
  m_IsActive: 1
--- !u!4 &6390160636646022493
Transform:
  m_ObjectHideFlags: 0
  m_CorrespondingSourceObject: {fileID: 0}
  m_PrefabInstance: {fileID: 0}
  m_PrefabAsset: {fileID: 0}
  m_GameObject: {fileID: 9078467562871316788}
  m_LocalRotation: {x: 0, y: 0, z: 0, w: 1}
  m_LocalPosition: {x: 0, y: 0, z: 0}
  m_LocalScale: {x: 0.5, y: 0.5, z: 0.5}
  m_Children:
  - {fileID: 4208809552621794182}
  - {fileID: 6962450391362667243}
  m_Father: {fileID: 0}
  m_RootOrder: 0
  m_LocalEulerAnglesHint: {x: 0, y: 0, z: 0}
--- !u!33 &54865020760211
MeshFilter:
  m_ObjectHideFlags: 0
  m_CorrespondingSourceObject: {fileID: 0}
  m_PrefabInstance: {fileID: 0}
  m_PrefabAsset: {fileID: 0}
  m_GameObject: {fileID: 9078467562871316788}
  m_Mesh: {fileID: 10207, guid: 0000000000000000e000000000000000, type: 0}
--- !u!23 &7592724232968764597
MeshRenderer:
  m_ObjectHideFlags: 0
  m_CorrespondingSourceObject: {fileID: 0}
  m_PrefabInstance: {fileID: 0}
  m_PrefabAsset: {fileID: 0}
  m_GameObject: {fileID: 9078467562871316788}
  m_Enabled: 0
  m_CastShadows: 1
  m_ReceiveShadows: 1
  m_DynamicOccludee: 1
  m_MotionVectors: 1
  m_LightProbeUsage: 1
  m_ReflectionProbeUsage: 1
  m_RayTracingMode: 2
  m_RenderingLayerMask: 1
  m_RendererPriority: 0
  m_Materials:
  - {fileID: 2100000, guid: ba36e5c8f9f8ec540abb0e8fdf0a860c, type: 2}
  m_StaticBatchInfo:
    firstSubMesh: 0
    subMeshCount: 0
  m_StaticBatchRoot: {fileID: 0}
  m_ProbeAnchor: {fileID: 0}
  m_LightProbeVolumeOverride: {fileID: 0}
  m_ScaleInLightmap: 1
  m_ReceiveGI: 1
  m_PreserveUVs: 0
  m_IgnoreNormalsForChartDetection: 0
  m_ImportantGI: 0
  m_StitchLightmapSeams: 1
  m_SelectedEditorRenderState: 3
  m_MinimumChartSize: 4
  m_AutoUVMaxDistance: 0.5
  m_AutoUVMaxAngle: 89
  m_LightmapParameters: {fileID: 0}
  m_SortingLayerID: 0
  m_SortingLayer: 0
  m_SortingOrder: 0
--- !u!135 &4509499200518839496
SphereCollider:
  m_ObjectHideFlags: 0
  m_CorrespondingSourceObject: {fileID: 0}
  m_PrefabInstance: {fileID: 0}
  m_PrefabAsset: {fileID: 0}
  m_GameObject: {fileID: 9078467562871316788}
  m_Material: {fileID: 0}
  m_IsTrigger: 1
  m_Enabled: 1
  serializedVersion: 2
  m_Radius: 0.5
  m_Center: {x: 0, y: 0, z: 0}
--- !u!54 &-6302726800169224700
Rigidbody:
  m_ObjectHideFlags: 0
  m_CorrespondingSourceObject: {fileID: 0}
  m_PrefabInstance: {fileID: 0}
  m_PrefabAsset: {fileID: 0}
  m_GameObject: {fileID: 9078467562871316788}
  serializedVersion: 2
  m_Mass: 1
  m_Drag: 0
  m_AngularDrag: 0.05
  m_UseGravity: 0
  m_IsKinematic: 0
  m_Interpolate: 0
  m_Constraints: 0
  m_CollisionDetection: 0
--- !u!114 &8406047398077677370
MonoBehaviour:
  m_ObjectHideFlags: 0
  m_CorrespondingSourceObject: {fileID: 0}
  m_PrefabInstance: {fileID: 0}
  m_PrefabAsset: {fileID: 0}
  m_GameObject: {fileID: 9078467562871316788}
  m_Enabled: 1
  m_EditorHideFlags: 0
  m_Script: {fileID: 11500000, guid: d6fa53aac14c86441bca0f8739b66f4d, type: 3}
  m_Name: 
  m_EditorClassIdentifier: 
  damageEffect: {fileID: 100002, guid: 75369bb81385f4904842bf20a51c14a2, type: 3}
  damageAmount: 40
--- !u!114 &7241289077568555940
MonoBehaviour:
  m_ObjectHideFlags: 0
  m_CorrespondingSourceObject: {fileID: 0}
  m_PrefabInstance: {fileID: 0}
  m_PrefabAsset: {fileID: 0}
  m_GameObject: {fileID: 9078467562871316788}
  m_Enabled: 1
  m_EditorHideFlags: 0
  m_Script: {fileID: 11500000, guid: fba239194ee75764eb3829aff5326169, type: 3}
  m_Name: 
  m_EditorClassIdentifier: 
  lifeDuration: 1
--- !u!1001 &4208809552621922564
PrefabInstance:
  m_ObjectHideFlags: 0
  serializedVersion: 2
  m_Modification:
    m_TransformParent: {fileID: 6390160636646022493}
    m_Modifications:
    - target: {fileID: 100002, guid: 200e650fba6c8492b87e96e4bc273510, type: 3}
      propertyPath: m_Name
      value: ErekiBall2
      objectReference: {fileID: 0}
    - target: {fileID: 400002, guid: 200e650fba6c8492b87e96e4bc273510, type: 3}
      propertyPath: m_RootOrder
      value: 0
      objectReference: {fileID: 0}
    - target: {fileID: 400002, guid: 200e650fba6c8492b87e96e4bc273510, type: 3}
      propertyPath: m_LocalPosition.x
      value: 0
      objectReference: {fileID: 0}
    - target: {fileID: 400002, guid: 200e650fba6c8492b87e96e4bc273510, type: 3}
      propertyPath: m_LocalPosition.y
      value: 0
      objectReference: {fileID: 0}
    - target: {fileID: 400002, guid: 200e650fba6c8492b87e96e4bc273510, type: 3}
      propertyPath: m_LocalPosition.z
      value: 0
      objectReference: {fileID: 0}
    - target: {fileID: 400002, guid: 200e650fba6c8492b87e96e4bc273510, type: 3}
      propertyPath: m_LocalRotation.w
      value: 0.49243817
      objectReference: {fileID: 0}
    - target: {fileID: 400002, guid: 200e650fba6c8492b87e96e4bc273510, type: 3}
      propertyPath: m_LocalRotation.x
      value: -0.49243817
      objectReference: {fileID: 0}
    - target: {fileID: 400002, guid: 200e650fba6c8492b87e96e4bc273510, type: 3}
      propertyPath: m_LocalRotation.y
      value: -0.50744915
      objectReference: {fileID: 0}
    - target: {fileID: 400002, guid: 200e650fba6c8492b87e96e4bc273510, type: 3}
      propertyPath: m_LocalRotation.z
      value: 0.50744915
      objectReference: {fileID: 0}
    - target: {fileID: 400002, guid: 200e650fba6c8492b87e96e4bc273510, type: 3}
      propertyPath: m_LocalEulerAnglesHint.x
      value: 0
      objectReference: {fileID: 0}
    - target: {fileID: 400002, guid: 200e650fba6c8492b87e96e4bc273510, type: 3}
      propertyPath: m_LocalEulerAnglesHint.y
      value: 0
      objectReference: {fileID: 0}
    - target: {fileID: 400002, guid: 200e650fba6c8492b87e96e4bc273510, type: 3}
      propertyPath: m_LocalEulerAnglesHint.z
      value: 0
      objectReference: {fileID: 0}
    - target: {fileID: 19800000, guid: 200e650fba6c8492b87e96e4bc273510, type: 3}
      propertyPath: InitialModule.startRotationX.minMaxState
      value: 3
      objectReference: {fileID: 0}
    - target: {fileID: 19800000, guid: 200e650fba6c8492b87e96e4bc273510, type: 3}
      propertyPath: InitialModule.startRotationY.minMaxState
      value: 3
      objectReference: {fileID: 0}
    m_RemovedComponents: []
  m_SourcePrefab: {fileID: 100100000, guid: 200e650fba6c8492b87e96e4bc273510, type: 3}
--- !u!4 &4208809552621794182 stripped
Transform:
  m_CorrespondingSourceObject: {fileID: 400002, guid: 200e650fba6c8492b87e96e4bc273510,
    type: 3}
  m_PrefabInstance: {fileID: 4208809552621922564}
  m_PrefabAsset: {fileID: 0}
--- !u!1001 &6962450391362803817
PrefabInstance:
  m_ObjectHideFlags: 0
  serializedVersion: 2
  m_Modification:
    m_TransformParent: {fileID: 6390160636646022493}
    m_Modifications:
    - target: {fileID: 100002, guid: 391ec6f1311384e75b4888fd6fc26b7e, type: 3}
      propertyPath: m_Name
      value: ErekiBall
      objectReference: {fileID: 0}
    - target: {fileID: 400002, guid: 391ec6f1311384e75b4888fd6fc26b7e, type: 3}
      propertyPath: m_RootOrder
      value: 1
      objectReference: {fileID: 0}
    - target: {fileID: 400002, guid: 391ec6f1311384e75b4888fd6fc26b7e, type: 3}
      propertyPath: m_LocalPosition.x
      value: 0
      objectReference: {fileID: 0}
    - target: {fileID: 400002, guid: 391ec6f1311384e75b4888fd6fc26b7e, type: 3}
      propertyPath: m_LocalPosition.y
      value: 0
      objectReference: {fileID: 0}
    - target: {fileID: 400002, guid: 391ec6f1311384e75b4888fd6fc26b7e, type: 3}
      propertyPath: m_LocalPosition.z
      value: 0
      objectReference: {fileID: 0}
    - target: {fileID: 400002, guid: 391ec6f1311384e75b4888fd6fc26b7e, type: 3}
      propertyPath: m_LocalRotation.w
      value: 0.4924383
      objectReference: {fileID: 0}
    - target: {fileID: 400002, guid: 391ec6f1311384e75b4888fd6fc26b7e, type: 3}
      propertyPath: m_LocalRotation.x
      value: -0.4924383
      objectReference: {fileID: 0}
    - target: {fileID: 400002, guid: 391ec6f1311384e75b4888fd6fc26b7e, type: 3}
      propertyPath: m_LocalRotation.y
      value: -0.5074491
      objectReference: {fileID: 0}
    - target: {fileID: 400002, guid: 391ec6f1311384e75b4888fd6fc26b7e, type: 3}
      propertyPath: m_LocalRotation.z
      value: 0.5074491
      objectReference: {fileID: 0}
    - target: {fileID: 400002, guid: 391ec6f1311384e75b4888fd6fc26b7e, type: 3}
      propertyPath: m_LocalEulerAnglesHint.x
      value: 0
      objectReference: {fileID: 0}
    - target: {fileID: 400002, guid: 391ec6f1311384e75b4888fd6fc26b7e, type: 3}
      propertyPath: m_LocalEulerAnglesHint.y
      value: 0
      objectReference: {fileID: 0}
    - target: {fileID: 400002, guid: 391ec6f1311384e75b4888fd6fc26b7e, type: 3}
      propertyPath: m_LocalEulerAnglesHint.z
      value: 0
      objectReference: {fileID: 0}
    m_RemovedComponents: []
  m_SourcePrefab: {fileID: 100100000, guid: 391ec6f1311384e75b4888fd6fc26b7e, type: 3}
--- !u!4 &6962450391362667243 stripped
Transform:
  m_CorrespondingSourceObject: {fileID: 400002, guid: 391ec6f1311384e75b4888fd6fc26b7e,
    type: 3}
  m_PrefabInstance: {fileID: 6962450391362803817}
  m_PrefabAsset: {fileID: 0}
