%YAML 1.1
%TAG !u! tag:unity3d.com,2011:
--- !u!114 &-8459978270233041299
MonoBehaviour:
  m_ObjectHideFlags: 3
  m_CorrespondingSourceObject: {fileID: 0}
  m_PrefabInstance: {fileID: 0}
  m_PrefabAsset: {fileID: 0}
  m_GameObject: {fileID: 0}
  m_Enabled: 1
  m_EditorHideFlags: 0
  m_Script: {fileID: 11500000, guid: c01700fd266d6914ababb731e09af2eb, type: 3}
  m_Name: DepthOfField
  m_EditorClassIdentifier: 
  active: 1
  m_AdvancedMode: 0
  mode:
    m_OverrideState: 1
    m_Value: 2
  gaussianStart:
    m_OverrideState: 1
    m_Value: 10
    min: 0
  gaussianEnd:
    m_OverrideState: 1
    m_Value: 30
    min: 0
  gaussianMaxRadius:
    m_OverrideState: 1
    m_Value: 1.078
    min: 0.5
    max: 1.5
  highQualitySampling:
    m_OverrideState: 1
    m_Value: 0
  focusDistance:
    m_OverrideState: 1
    m_Value: 10
    min: 0.1
  aperture:
    m_OverrideState: 1
    m_Value: 5.6
    min: 1
    max: 32
  focalLength:
    m_OverrideState: 1
    m_Value: 50
    min: 1
    max: 300
  bladeCount:
    m_OverrideState: 1
    m_Value: 5
    min: 3
    max: 9
  bladeCurvature:
    m_OverrideState: 1
    m_Value: 1
    min: 0
    max: 1
  bladeRotation:
    m_OverrideState: 1
    m_Value: 0
    min: -180
    max: 180
--- !u!114 &-4514794276410614432
MonoBehaviour:
  m_ObjectHideFlags: 3
  m_CorrespondingSourceObject: {fileID: 0}
  m_PrefabInstance: {fileID: 0}
  m_PrefabAsset: {fileID: 0}
  m_GameObject: {fileID: 0}
  m_Enabled: 1
  m_EditorHideFlags: 0
  m_Script: {fileID: 11500000, guid: 66f335fb1ffd8684294ad653bf1c7564, type: 3}
  m_Name: ColorAdjustments
  m_EditorClassIdentifier: 
  active: 1
  m_AdvancedMode: 0
  postExposure:
    m_OverrideState: 1
    m_Value: 0.2
  contrast:
    m_OverrideState: 1
    m_Value: 0
    min: -100
    max: 100
  colorFilter:
    m_OverrideState: 1
    m_Value: {r: 1, g: 1, b: 1, a: 1}
    hdr: 1
    showAlpha: 0
    showEyeDropper: 1
  hueShift:
    m_OverrideState: 1
    m_Value: 0
    min: -180
    max: 180
  saturation:
    m_OverrideState: 1
    m_Value: 16
    min: -100
    max: 100
--- !u!114 &-3716167644929754515
MonoBehaviour:
  m_ObjectHideFlags: 3
  m_CorrespondingSourceObject: {fileID: 0}
  m_PrefabInstance: {fileID: 0}
  m_PrefabAsset: {fileID: 0}
  m_GameObject: {fileID: 0}
  m_Enabled: 1
  m_EditorHideFlags: 0
  m_Script: {fileID: 11500000, guid: 899c54efeace73346a0a16faa3afe726, type: 3}
  m_Name: Vignette
  m_EditorClassIdentifier: 
  active: 1
  m_AdvancedMode: 0
  color:
    m_OverrideState: 1
    m_Value: {r: 0, g: 0, b: 0, a: 1}
    hdr: 0
    showAlpha: 0
    showEyeDropper: 1
  center:
    m_OverrideState: 1
    m_Value: {x: 0.5, y: 0.5}
  intensity:
    m_OverrideState: 1
    m_Value: 0.523
    min: 0
    max: 1
  smoothness:
    m_OverrideState: 1
    m_Value: 0.287
    min: 0.01
    max: 1
  rounded:
    m_OverrideState: 1
    m_Value: 0
--- !u!114 &-979538959545498397
MonoBehaviour:
  m_ObjectHideFlags: 3
  m_CorrespondingSourceObject: {fileID: 0}
  m_PrefabInstance: {fileID: 0}
  m_PrefabAsset: {fileID: 0}
  m_GameObject: {fileID: 0}
  m_Enabled: 1
  m_EditorHideFlags: 0
  m_Script: {fileID: 11500000, guid: 558a8e2b6826cf840aae193990ba9f2e, type: 3}
  m_Name: ShadowsMidtonesHighlights
  m_EditorClassIdentifier: 
  active: 1
  m_AdvancedMode: 0
  shadows:
    m_OverrideState: 1
    m_Value: {x: 1, y: 1, z: 1, w: -0.042123117}
  midtones:
    m_OverrideState: 1
    m_Value: {x: 1, y: 1, z: 1, w: -0.43807915}
  highlights:
    m_OverrideState: 1
    m_Value: {x: 1, y: 1, z: 1, w: -0.21061498}
  shadowsStart:
    m_OverrideState: 1
    m_Value: 0
    min: 0
  shadowsEnd:
    m_OverrideState: 1
    m_Value: 0.3
    min: 0
  highlightsStart:
    m_OverrideState: 1
    m_Value: 0.55
    min: 0
  highlightsEnd:
    m_OverrideState: 1
    m_Value: 1
    min: 0
--- !u!114 &-939279201957936647
MonoBehaviour:
  m_ObjectHideFlags: 3
  m_CorrespondingSourceObject: {fileID: 0}
  m_PrefabInstance: {fileID: 0}
  m_PrefabAsset: {fileID: 0}
  m_GameObject: {fileID: 0}
  m_Enabled: 1
  m_EditorHideFlags: 0
  m_Script: {fileID: 11500000, guid: 0b2db86121404754db890f4c8dfe81b2, type: 3}
  m_Name: Bloom
  m_EditorClassIdentifier: 
  active: 1
  m_AdvancedMode: 0
  threshold:
    m_OverrideState: 1
    m_Value: 0.31
    min: 0
  intensity:
    m_OverrideState: 1
    m_Value: 0.4
    min: 0
  scatter:
    m_OverrideState: 1
    m_Value: 0.669
    min: 0
    max: 1
  clamp:
    m_OverrideState: 1
    m_Value: 65472
    min: 0
  tint:
    m_OverrideState: 1
    m_Value: {r: 1, g: 1, b: 1, a: 1}
    hdr: 0
    showAlpha: 0
    showEyeDropper: 1
  highQualityFiltering:
    m_OverrideState: 1
    m_Value: 0
  dirtTexture:
    m_OverrideState: 1
    m_Value: {fileID: 0}
  dirtIntensity:
    m_OverrideState: 1
    m_Value: 0
    min: 0
--- !u!114 &11400000
MonoBehaviour:
  m_ObjectHideFlags: 0
  m_CorrespondingSourceObject: {fileID: 0}
  m_PrefabInstance: {fileID: 0}
  m_PrefabAsset: {fileID: 0}
  m_GameObject: {fileID: 0}
  m_Enabled: 1
  m_EditorHideFlags: 0
  m_Script: {fileID: 11500000, guid: d7fd9488000d3734a9e00ee676215985, type: 3}
  m_Name: Post Processing Profile
  m_EditorClassIdentifier: 
  components:
  - {fileID: -939279201957936647}
  - {fileID: 4540321534572953290}
  - {fileID: 4480517679017675980}
  - {fileID: 1826918404048231275}
  - {fileID: -8459978270233041299}
  - {fileID: -3716167644929754515}
  - {fileID: -4514794276410614432}
  - {fileID: -979538959545498397}
--- !u!114 &1826918404048231275
MonoBehaviour:
  m_ObjectHideFlags: 3
  m_CorrespondingSourceObject: {fileID: 0}
  m_PrefabInstance: {fileID: 0}
  m_PrefabAsset: {fileID: 0}
  m_GameObject: {fileID: 0}
  m_Enabled: 1
  m_EditorHideFlags: 0
  m_Script: {fileID: 11500000, guid: 29fa0085f50d5e54f8144f766051a691, type: 3}
  m_Name: FilmGrain
  m_EditorClassIdentifier: 
  active: 1
  m_AdvancedMode: 0
  type:
    m_OverrideState: 1
    m_Value: 2
  intensity:
    m_OverrideState: 1
    m_Value: 0.286
    min: 0
    max: 1
  response:
    m_OverrideState: 1
    m_Value: 0.266
    min: 0
    max: 1
  texture:
    m_OverrideState: 1
    m_Value: {fileID: 0}
--- !u!114 &4480517679017675980
MonoBehaviour:
  m_ObjectHideFlags: 3
  m_CorrespondingSourceObject: {fileID: 0}
  m_PrefabInstance: {fileID: 0}
  m_PrefabAsset: {fileID: 0}
  m_GameObject: {fileID: 0}
  m_Enabled: 1
  m_EditorHideFlags: 0
  m_Script: {fileID: 11500000, guid: c5e1dc532bcb41949b58bc4f2abfbb7e, type: 3}
  m_Name: LensDistortion
  m_EditorClassIdentifier: 
  active: 0
  m_AdvancedMode: 0
  intensity:
    m_OverrideState: 1
    m_Value: 0
    min: -1
    max: 1
  xMultiplier:
    m_OverrideState: 1
    m_Value: 1
    min: 0
    max: 1
  yMultiplier:
    m_OverrideState: 1
    m_Value: 1
    min: 0
    max: 1
  center:
    m_OverrideState: 1
    m_Value: {x: 0.5, y: 0.5}
  scale:
    m_OverrideState: 1
    m_Value: 1
    min: 0.01
    max: 5
--- !u!114 &4540321534572953290
MonoBehaviour:
  m_ObjectHideFlags: 3
  m_CorrespondingSourceObject: {fileID: 0}
  m_PrefabInstance: {fileID: 0}
  m_PrefabAsset: {fileID: 0}
  m_GameObject: {fileID: 0}
  m_Enabled: 1
  m_EditorHideFlags: 0
  m_Script: {fileID: 11500000, guid: 81180773991d8724ab7f2d216912b564, type: 3}
  m_Name: ChromaticAberration
  m_EditorClassIdentifier: 
  active: 1
  m_AdvancedMode: 0
  intensity:
    m_OverrideState: 1
    m_Value: 0.252
    min: 0
    max: 1
